<?xml version="1.0" encoding="UTF-8"?>
<svg width="1857px" height="160px" viewBox="0 0 1857 160" version="1.1" xmlns="http://www.w3.org/2000/svg" xmlns:xlink="http://www.w3.org/1999/xlink">
    <!-- Generator: Sketch 51.3 (57544) - http://www.bohemiancoding.com/sketch -->
    <title>&lt;3 Threls</title>
    <desc>Created with Sketch.</desc>
    <defs>
        <path d="M29.4978047,13.1343284 L29.4978047,41.293594 L63.2469535,41.293594 L63.2469535,70.1042833 L29.4978047,70.1042833 L29.4978047,113.127851 C29.5141607,120.856178 35.801536,127.117171 43.562428,127.133459 L63.2766885,127.133459 L63.2766885,156.41791 L40.3213203,156.41791 C17.5170206,154.840331 -0.132657339,135.890807 0.000751290995,113.127851 L0.000751290995,17.7831241 L29.4978047,13.1343284 Z M169.610148,54.7148727 C173.978801,59.6142054 177.327861,65.3430559 179.45999,71.5638611 C181.634071,78.0786638 182.71709,84.9111718 182.664864,91.7826472 L182.664864,157.61194 L153.49757,157.61194 L153.49757,92.8172342 C153.845941,86.2308024 151.785722,79.7437556 147.705275,74.5789432 C144.412194,70.5588337 139.325559,68.6670175 132.151345,68.6670175 C129.118303,68.6442365 126.113943,69.2583872 123.330591,70.4701549 C120.602821,71.6982749 118.136809,73.4447484 116.06817,75.6135302 C111.497697,80.5965052 109.021725,87.163762 109.158579,93.9405001 L109.158579,157.61194 L79.9912854,157.61194 L79.9912854,4.69998097 L109.217384,0 L109.217384,45.462709 C111.245699,44.3351546 113.347927,43.3475559 115.509522,42.5067461 C121.08718,40.4755273 126.983984,39.4741229 132.915811,39.5507832 C139.961266,39.4554236 146.955961,40.7613797 153.49757,43.393535 C159.651141,45.8933601 165.160302,49.7643159 169.610148,54.7148727 Z M200.575163,100.575435 C200.640566,66.1121358 228.494053,38.2088927 262.830434,38.2089552 L266.239651,38.2089552 L266.239651,68.7673402 L262.830434,68.7673402 C245.306846,68.7508871 231.083317,82.9870654 231.050601,100.575435 L231.050601,158.80597 L200.575163,158.80597 L200.575163,100.575435 Z M403.538126,157.61194 L403.538126,4.75910022 L433.385621,0 L433.385621,157.61194 L403.538126,157.61194 Z M363.855415,44.982756 C372.253469,49.3973643 379.514657,55.73064 385.060801,63.4782901 L391.599129,73.38024 L383.20533,81.0817566 C382.380676,81.8251462 380.790272,83.2524543 376.725906,87.0288736 C373.10332,90.3295236 369.951964,93.1544042 367.212935,95.3845731 C364.473906,97.614742 361.116386,100.112531 357.287636,102.848205 C353.113701,105.802341 348.580019,108.200952 343.798654,109.984746 C339.194503,111.692435 334.331061,112.577896 329.426115,112.601477 L304.421431,112.601477 C309.557832,124.520202 320.851227,132.549895 333.696644,133.416387 L333.696644,160 C323.893774,159.697667 314.319263,156.938664 305.835123,151.971392 C279.484884,136.567671 268.675344,103.724604 280.653727,75.461731 C286.753184,60.8476208 298.276033,49.2244647 312.756325,43.0796785 C329.215468,35.9740017 347.95952,36.6720842 363.855415,44.982756 Z M377.618443,134.462687 C380.452904,137.266326 382.04793,141.087609 382.04793,145.074627 C382.04793,149.061645 380.452904,152.882928 377.618443,155.686567 C371.773515,161.467937 362.354312,161.433263 356.552097,155.609018 C350.749882,149.784773 350.749882,140.364481 356.552097,134.540236 C362.354312,128.71599 371.773515,128.681317 377.618443,134.462687 Z M542.683855,105.210758 C546.329139,109.826694 548.204791,115.589248 547.973505,121.46212 C548.383597,131.663598 544.01468,141.474764 536.153059,148.006993 C528.46977,154.348269 516.974387,157.592642 502.021524,157.592642 C491.543315,157.82667 481.126983,155.930047 471.40657,152.018219 C463.805318,148.91735 456.804932,144.515584 450.720791,139.011231 L450.100218,138.450839 L463.309565,116.3891 L464.166548,117.155952 C469.170395,121.451384 474.813138,124.943955 480.892478,127.508452 C484.648831,129.106647 488.521298,130.417994 492.476514,131.431195 C496.419571,132.480441 500.482135,133.015788 504.562919,133.023887 C508.287378,133.125771 511.983231,132.347597 515.349076,130.752826 C518.048415,129.474858 519.689508,126.678664 519.486232,123.703687 C519.301824,121.037609 517.566295,118.728019 515.053565,117.804826 C511.117062,115.880379 507.011951,114.320474 502.789853,113.144726 C497.825266,111.670011 492.417412,110.195296 486.714047,108.720581 C481.036487,107.29664 475.557405,105.176587 470.401833,102.4088 C465.564124,99.8054821 461.278751,96.2896176 457.783507,92.0562989 C454.167848,87.3256998 452.318143,81.4847739 452.55296,75.5394888 C452.457715,70.4849162 453.65802,65.4898767 456.039992,61.0282913 C458.386367,56.8649491 461.613303,53.2617545 465.496348,50.4693305 C469.800726,47.4824875 474.604006,45.2852166 479.680882,43.9805836 C485.470174,42.4829849 491.431168,41.749209 497.41155,41.7980051 C503.357995,41.7241709 509.297163,42.2379093 515.142218,43.3317089 C519.661498,44.1840917 524.100217,45.4174397 528.410668,47.0184969 C531.846587,48.2874518 535.127869,49.9397798 538.192086,51.9440457 C540.910789,53.8611754 543.156673,55.3948792 545.047944,56.8106058 L545.816273,57.3709976 L533.611664,78.2234704 L532.784232,77.6925729 C530.774757,76.4243179 528.440219,75.0970742 525.839721,73.7403362 C523.145901,72.3636657 520.384296,71.1233327 517.565409,70.0240539 C514.623554,68.8793652 511.601149,67.952699 508.522769,67.2515894 C505.485464,66.5783272 502.384553,66.2322466 499.27327,66.2192887 C494.663718,66.0512841 490.068311,66.8240764 485.768411,68.4903501 C482.989703,69.3805936 481.095806,71.9484887 481.069784,74.8611198 C481.069784,77.0436983 482.54734,78.7838622 485.502451,80.1700945 C489.425108,81.9776767 493.499076,83.4383277 497.67751,84.5352514 L513.753316,88.9299027 C519.384371,90.4291242 524.841917,92.5150196 530.035979,95.1532008 C534.898852,97.6038139 539.204174,101.027394 542.683855,105.210758 Z M351.515059,73.8857449 C352.221905,73.2315621 353.458886,72.1313454 355.078742,70.6743017 C353.552434,69.652893 351.958257,68.7388386 350.30753,67.9386279 C337.825112,62.0996028 323.085974,64.4486311 312.991941,73.8857449 C309.287851,77.2288542 306.352639,81.3493117 304.391979,85.9583926 L329.838442,85.9583926 C331.289186,85.9058154 332.721708,85.614543 334.079519,85.0960606 C336.018823,84.430117 337.908551,83.6252093 339.734289,82.6874782 C341.808603,81.4893985 343.779059,80.1166893 345.624674,78.5839674 C348.569866,76.3835341 350.484241,74.8075481 351.515059,73.8857449 Z" id="path-1"></path>
    </defs>
    <g id="&lt;3-Threls" stroke="none" stroke-width="1" fill="none" fill-rule="evenodd">
        <path d="M140.768627,9.35745051 C132.076587,3.09130057 121.127959,0 109.343557,0 C85.1061348,0 57.6927753,12.3652024 34.9597454,35.0068907 C0.275159085,69.6795866 -10.0048507,116.466839 10.4715917,142.450474 C11.1402102,143.285961 12.1431381,143.703704 13.1460658,143.703704 C13.981839,143.703704 14.7340348,143.36951 15.4026534,142.784669 C16.1548492,142.116279 16.9906224,141.364342 17.9099728,140.445306 C21.8381067,136.852713 27.3542095,131.756245 34.0403948,125.573643 C37.2999103,122.482343 40.8937348,119.140397 44.6547139,115.631352 C46.5769923,113.876831 48.4156932,112.03876 50.3379715,110.117141 C51.257322,109.198105 52.2602498,108.195521 53.2631776,107.276486 C54.2661053,106.35745 55.1018786,105.354866 56.1048063,104.435831 C56.6062703,103.934539 57.0241568,103.433247 57.5256207,103.015504 C58.0270847,102.514213 58.5285485,102.01292 59.0300123,101.428079 C59.5314763,100.926787 59.9493628,100.425495 60.4508267,99.9242034 C60.4508267,99.8406549 60.5344041,99.8406549 60.5344041,99.7571063 C60.8687135,99.3393623 61.2866,98.8380709 61.6209092,98.4203269 C62.0387957,97.9190354 62.4566825,97.4177429 62.874569,97 C63.2924555,96.4987086 63.6267648,95.997416 64.0446513,95.4961246 L65.1311565,94.0757966 C65.2147338,93.992248 65.2147338,93.992248 65.2147338,93.9086994 L66.2176616,92.404824 C67.638476,90.3161074 68.7249811,88.0602926 69.8950635,85.7209303 C70.9815687,83.2980194 71.9844964,80.7915589 73.0710016,78.0344531 C75.2440117,72.5202413 78.0020632,66.1705427 82.097352,60.5727822 C82.598816,59.9043928 83.10028,59.1524549 83.6017428,58.4840656 C84.2703622,57.5650302 85.2732902,56.5624463 85.9419085,55.6434109 C86.1090628,55.4763136 86.2762171,55.3092162 86.3597942,55.1421189 C87.1119908,54.390181 87.8641862,53.6382431 88.6163828,52.8863049 C89.1178457,52.3850129 89.6193097,51.8837209 90.2043508,51.2988803 L90.2879291,51.2153317 L90.5386605,50.9646857 L90.6222377,50.8811369 L90.8729702,50.7140397 L91.290856,50.2962963 L92.1266297,49.5443584 C93.296712,48.5417744 94.3832171,47.5391904 95.4697222,46.6201552 C97.7263097,44.6985358 99.9828971,42.9440138 102.155907,41.1894919 C104.328918,39.5185186 106.501928,37.8475453 108.674938,36.2601207 C112.853805,33.0852713 116.949093,30.2446168 120.793649,27.6546082 C124.554629,25.0645995 128.064875,22.8087855 131.240814,20.8036177 C134.416752,18.7984497 137.091226,17.1274763 139.431391,15.707149 C139.849278,15.456503 140.267163,15.205857 140.601473,15.0387598 C142.690906,13.701981 142.774483,10.7777778 140.768627,9.35745051 Z M146.619928,16.2962963 C145.785199,16.2962963 144.950469,16.6301029 144.366158,17.2142642 C143.614901,17.8818773 142.780171,18.6329419 141.861969,19.5509098 C139.94209,21.3868457 137.521374,23.556588 134.850239,26.0601368 C132.179104,28.5636857 129.090603,31.4010411 125.751685,34.4052997 C124.082225,35.9074289 122.329294,37.4930098 120.576361,39.2454942 C118.823429,40.9145267 116.987023,42.5835592 115.067145,44.3360434 C111.310861,47.8410118 107.471104,51.5963351 103.631347,55.5185616 C102.629672,56.5199811 101.711469,57.5214007 100.793266,58.5228202 L100.125482,59.2738848 L99.7915908,59.6911431 L99.6246445,59.8580463 L99.5411714,59.9414978 L99.4576982,60.0249496 C99.4576982,60.0249496 99.4576982,59.9414978 99.6246445,59.8580463 L99.5411714,59.9414978 C98.6229691,61.0263691 97.7047668,62.0277887 96.7865634,63.1126598 C96.7030903,63.1961113 96.6196183,63.2795631 96.6196183,63.3630146 L95.7014148,64.6982407 C95.3675234,65.1989505 95.0336308,65.6162087 94.6997394,66.1169185 L93.698064,67.7024993 C91.0269291,71.8750807 89.1070503,76.6318235 86.9367531,82.2230823 C85.7681314,84.9769863 84.5995097,87.9812446 83.0969965,90.985504 C82.763104,91.736568 82.2622663,92.4876331 81.9283748,93.2386971 C81.5110103,93.9897623 81.1771177,94.7408274 80.67628,95.4918914 C79.7580772,96.9105691 78.8398746,98.4126983 77.8381991,99.7479246 C77.1704152,100.665893 76.4191585,101.583861 75.7513747,102.501829 C75.6679017,102.668731 75.5009557,102.752183 75.4174827,102.919087 C74.5827531,103.753602 73.8314964,104.755023 72.9967666,105.589538 C72.4124557,106.173701 71.828145,106.757862 71.2438341,107.342023 L70.4091045,108.176539 L69.9917396,108.593798 L69.7413207,108.844152 L69.5743747,109.011056 L69.4909017,109.094507 L69.4074288,109.177959 C68.823118,109.678669 68.3222802,110.179378 67.8214423,110.596637 C67.3206045,111.097346 66.7362937,111.514605 66.235456,112.015314 C65.6511451,112.516024 65.0668343,113.016734 64.5659963,113.433992 C62.2287532,115.436831 60.058456,117.189315 57.8881587,118.941799 C55.6343883,120.610832 53.5475641,122.279864 51.3772668,123.865446 C47.2036183,127.036607 43.1134426,129.873962 39.2736858,132.460963 C36.3521319,134.463802 24.4989698,141.890997 18.6558618,145.562869 C16.9029294,146.647739 18.071551,149.902353 19.5740645,150.903773 C28.2552535,156.995741 39.023267,160 50.7094831,160 C74.4992801,160 102.379253,147.816063 125.083902,125.117219 C159.725184,90.4847943 169.99236,43.7518819 149.541482,17.7984257 C148.623279,16.7970061 147.621603,16.2962963 146.619928,16.2962963 Z" id="Coffee-Bean" fill="#575756" fill-rule="nonzero"></path>
        <path d="M500.872153,159.832133 L480.998705,154.300883 C478.913622,153.738383 477.740763,151.644633 478.327193,149.644633 L522.798103,2.70713307 C523.384533,0.707133067 525.567354,-0.417866933 527.652438,0.144633067 L547.525885,5.67588307 C549.610968,6.23838307 550.783827,8.33213307 550.197397,10.3321331 L505.726487,157.269633 C505.107478,159.269633 502.957236,160.425883 500.872153,159.832133 Z M463.731612,124.769633 L477.90366,110.269633 C479.402314,108.738383 479.304575,106.300883 477.643025,104.894633 L448.126069,79.9883831 L477.643025,55.0821331 C479.304575,53.6758831 479.434893,51.2383831 477.90366,49.7071331 L463.731612,35.2071331 C462.265538,33.7071331 459.789502,33.6133831 458.19311,35.0508831 L411.246163,77.2383831 C409.584612,78.7071331 409.584612,81.2383827 411.246163,82.7071333 L458.19311,124.925883 C459.789502,126.363383 462.265538,126.300883 463.731612,124.769633 Z M570.331481,124.957133 L617.278428,82.7383827 C618.939978,81.2696333 618.939978,78.7383831 617.278428,77.2696331 L570.331481,35.0196331 C568.767667,33.6133831 566.291633,33.6758831 564.792979,35.1758831 L550.62093,49.6758831 C549.122277,51.2071331 549.220015,53.6446331 550.881565,55.0508831 L580.398521,79.9883831 L550.881565,104.894633 C549.220015,106.300883 549.089697,108.738383 550.62093,110.269633 L564.792979,124.769633 C566.259053,126.300883 568.735089,126.363383 570.331481,124.957133 Z" id="Code" fill="#4D24ED" fill-rule="nonzero"></path>
        <polygon id="Add" fill="#C2C2C2" fill-rule="nonzero" points="335 92.5 297.5 92.5 297.5 130 272.5 130 272.5 92.5 235 92.5 235 67.5 272.5 67.5 272.5 30 297.5 30 297.5 67.5 335 67.5"></polygon>
        <polygon id="Add-2" fill="#C2C2C2" fill-rule="nonzero" points="794 92.5 756.5 92.5 756.5 130 731.5 130 731.5 92.5 694 92.5 694 67.5 731.5 67.5 731.5 30 756.5 30 756.5 67.5 794 67.5"></polygon>
        <path d="M1007.65508,0 C989.197861,0 971.887701,14.3769865 963.545455,22.5136023 C955.203209,14.3769865 937.893048,0 919.435829,0 C887.874332,0 869,18.2384313 869,48.7852179 C869,73.8156547 892.219251,94.7433063 893.053476,95.467328 L958.053476,157.802079 C961.112299,160.73264 965.97861,160.73264 969.037433,157.802079 L1033.93316,95.6741909 C1034.87166,94.7433063 1058.09091,73.7811776 1058.09091,48.7852179 C1058.09091,18.2384313 1039.21658,0 1007.65508,0 Z" id="Heart" fill="#B4171F" fill-rule="nonzero"></path>
        <path d="M1134,90.1733322 L1233.99508,90.1733322 L1233.99508,109.759998 L1134,109.759998 L1134,90.1733322 Z M1134,51 L1233.99508,51 L1233.99508,70.5866661 L1134,70.5866661 L1134,51 Z" id="Equal" fill="#C2C2C2" fill-rule="nonzero"></path>
        <g id="Logo-/-Full" transform="translate(1309.000000, 0.000000)">
            <mask id="mask-2" fill="white">
                <use xlink:href="#path-1"></use>
            </mask>
            <g id="Logo---Full" fill-rule="nonzero"></g>
            <g id="Colour-/-RGB-/-Brand" mask="url(#mask-2)" fill="#4D24ED" fill-rule="evenodd">
                <rect id="Rectangle" x="0" y="0" width="548" height="160"></rect>
            </g>
        </g>
    </g>
</svg>